Introduction to Stratigraphic Data Analysis (SDAR)
…
The Saltarin intervals dataset is available in Excel format, it is available
in installed files folder inst/extdata, to find inst/extdata/SDAR_v0.95_intervals_saltarin.xlsx,
you need to call 

system.file("extdata", "mydata.xlsx", package = "mypackage").

#  Read the bioturbation external data example (Saltarin intervals Excel file format)
fpath <- system.file("extdata", "SDAR_v0.95_intervals_saltarin.xlsx", package = "SDAR")
bioturbation_data <- read_excel(fpath, sheet = "bioturbation")     # import bioturbation sheet

nrow(bioturbation_data)   # number of bioturbated intervals
#> [1] 151
bioturbation_data  # header of Saltarin bioturbation dataset
#> # A tibble: 151 x 3
#>     base    top index   
#>    <dbl>  <dbl> <chr>   
#> 1 669.4  669.2  intense 
#> 2 668.6  668.2  moderate
#> 3 665.15 664.95 moderate
#> 4 661.4  659.9  low     
#> # … with 147 more rows
…
